Touches possibles :
    v:  Recharger les nuanceurs
    0: solution = 0; break;  image de base
    1: solution = 1; break;  solution 1
    2: solution = 2; break;  solution 2
    3: solution = 3; break;  solution 3
    4: solution = 4; break;  solution 4
    5: solution = 5; break;  solution 5
    s:  Sauvegarder une copie de la fenêtre dans un fichier
